25

13 64
14
r 3 22 n
h 6 34 n
f 1 51 s
f 12 32 e
t 2 0 w
t 5 26 n
h 8 11 w
h 2 17 e
r 3 56 e
f 6 8 s
r 11 3 e
f 11 53 n
h 11 47 w
f 12 17 w
163 55

142 141
5
r 9 92 e
h 59 138 s
h 84 70 e
h 125 32 n
f 132 11 e
113 153

131 8
14
t 15 3 e
h 42 1 w
f 66 7 w
t 113 4 n
f 29 1 s
t 81 0 e
h 84 6 w
r 0 4 n
r 22 1 w
r 45 2 w
t 95 7 n
r 58 3 s
f 13 3 e
t 106 5 s
95 64

131 45
2
t 46 3 e
h 54 22 n
160 135

98 71
9
t 76 2 s
t 86 66 w
t 26 46 s
f 43 1 s
r 41 59 e
f 25 6 s
f 19 55 w
r 73 35 s
t 66 49 n
156 131

175 127
11
h 15 12 n
h 62 117 e
f 52 13 w
f 65 91 s
f 127 94 s
t 167 1 n
t 73 1 e
h 103 80 e
f 110 16 e
r 52 42 w
r 55 101 e
100 99

7 159
10
r 2 131 e
t 6 15 s
r 4 60 e
t 5 30 w
r 5 67 n
t 2 147 w
h 0 145 n
r 3 90 s
h 1 122 w
h 6 152 w
161 142

136 198
15
t 109 91 w
h 54 86 w
r 96 135 w
f 9 93 w
h 5 143 w
h 44 67 s
f 123 58 w
r 83 188 w
r 82 78 e
f 111 92 s
t 118 127 w
t 71 71 w
r 134 108 e
t 19 134 s
f 126 178 s
11 103

92 19
7
f 16 4 w
t 34 7 e
h 5 3 e
h 15 2 w
r 48 15 w
f 23 13 e
f 5 15 w
186 194

135 166
6
f 80 12 n
r 55 83 w
f 48 45 w
r 123 25 e
r 97 59 s
t 52 93 w
132 161

136 139
10
h 0 106 n
t 21 127 n
f 129 26 n
f 89 90 e
t 18 52 e
f 77 30 e
t 85 55 s
t 108 61 w
t 78 40 n
r 4 61 w
91 84

12 22
6
r 10 14 e
h 7 17 s
t 10 14 e
h 1 3 e
f 0 10 w
r 6 8 s
58 98

15 80
3
t 7 67 s
h 2 52 w
r 4 12 w
55 130

20 157
11
f 17 117 e
f 3 4 e
t 18 32 w
t 19 62 s
r 0 123 n
h 11 153 n
r 1 120 s
t 13 80 e
t 15 62 w
t 14 124 s
f 16 124 e
54 134

86 108
13
h 30 43 w
f 73 3 e
h 43 55 n
t 81 30 e
t 53 13 w
r 62 7 w
r 32 41 w
t 49 99 s
t 74 29 s
f 72 55 n
f 31 14 s
r 13 80 n
h 20 93 w
42 77

141 116
5
t 64 46 e
h 48 26 w
f 9 106 e
t 102 92 n
t 33 19 e
166 79

200 171
1
f 103 84 s
186 20

3 126
4
r 1 47 w
r 0 12 s
t 0 17 w
h 2 18 s
119 75

99 29
6
r 92 9 e
f 39 7 s
r 27 20 w
t 72 28 s
t 23 21 s
t 79 28 w
147 122

123 169
14
f 28 147 w
t 107 116 e
r 40 53 n
t 15 98 n
h 70 121 w
h 71 95 s
h 69 17 s
f 21 49 w
h 73 103 n
f 23 102 w
f 72 137 e
f 90 135 w
r 68 79 w
h 51 134 w
63 78

156 147
2
r 126 137 s
t 111 81 w
81 141

66 62
2
h 45 25 e
h 65 1 w
156 153

95 22
1
f 8 8 e
48 25

3 72
5
h 2 7 e
f 1 38 w
t 0 33 w
h 0 7 n
h 1 48 n
127 55

68 69
6
r 42 51 s
r 6 22 w
t 23 24 w
r 2 49 e
f 47 15 n
r 33 35 n
140 8
