27

8 8
6
t 2 5 e
f 1 0 n
r 5 1 w
t 6 4 w
r 7 2 e
t 3 0 n
6 9

5 2
4
r 4 1 w
f 0 1 e
f 0 1 e
r 3 0 n
8 7

8 2
8
t 1 0 w
h 0 0 w
h 1 1 n
t 4 0 n
f 3 1 e
h 3 0 w
r 3 0 w
h 0 1 n
3 7

10 3
7
r 0 1 s
t 2 0 s
t 9 2 s
t 8 2 s
t 8 1 w
f 0 0 e
h 2 2 w
7 6

1 4
1
h 0 2 s
4 4

3 2
5
r 1 1 e
r 1 1 e
h 1 1 w
h 2 1 n
t 1 1 w
10 8

9 8
1
r 4 7 n
8 5

2 8
4
t 1 5 n
t 1 6 n
r 1 3 s
f 0 0 s
10 8

10 1
4
r 5 0 w
t 8 0 w
f 4 0 e
t 4 0 w
6 10

4 2
2
h 0 0 s
r 0 1 s
5 7

7 4
2
r 0 3 w
t 1 0 n
9 7

1 2
9
t 0 1 s
r 0 1 n
t 0 0 w
r 0 1 n
r 0 0 s
t 0 0 w
r 0 1 w
r 0 0 n
h 0 0 n
2 7

3 1
3
h 1 0 e
f 1 0 w
f 2 0 s
3 4

3 1
5
h 1 0 s
h 2 0 w
r 1 0 s
f 2 0 n
f 1 0 e
10 7

9 10
4
f 3 8 w
f 8 6 w
h 7 4 s
r 6 2 s
8 9

2 1
1
h 0 0 s
9 8

10 1
1
t 1 0 s
1 1

10 8
3
t 9 4 e
r 0 3 n
r 8 5 s
9 10

3 3
2
f 2 2 n
h 0 2 s
6 4

2 3
3
r 1 1 e
h 0 1 e
t 1 1 n
9 5

10 3
3
r 9 1 s
h 3 2 s
h 5 2 w
1 2

7 9
7
h 1 5 w
f 1 4 s
r 6 4 e
t 0 0 n
r 1 8 s
r 3 2 s
f 2 0 n
8 4

9 5
2
f 1 3 e
h 2 2 n
3 1

4 3
7
f 3 2 n
r 3 2 n
f 3 1 e
h 3 1 s
r 2 0 n
f 1 0 w
r 2 0 e
1 7

9 7
10
r 2 1 n
t 6 0 s
f 0 1 e
h 7 5 s
t 8 5 w
t 6 2 e
f 1 6 w
h 0 2 e
t 0 2 s
h 4 5 w
1 6

6 2
9
f 5 0 w
h 0 1 w
f 3 0 n
r 1 0 n
t 2 0 w
r 2 1 n
h 1 1 n
t 1 0 s
r 0 1 e
9 5

7 1
7
r 2 0 s
t 5 0 n
h 1 0 s
f 5 0 w
t 0 0 w
h 4 0 w
f 2 0 e
8 1
