*** Darwin 6x24 ***
Turn = 0.
  012345678901234567890123
0 ........................
1 ........................
2 ........................
3 ........................
4 ........h...............
5 ........................

Turn = 33.
  012345678901234567890123
0 ........................
1 ........................
2 ........................
3 ........................
4 h.......................
5 ........................

Turn = 66.
  012345678901234567890123
0 ........................
1 ........................
2 ........................
3 ........................
4 h.......................
5 ........................

Turn = 99.
  012345678901234567890123
0 ........................
1 ........................
2 ........................
3 ........................
4 h.......................
5 ........................

Turn = 132.
  012345678901234567890123
0 ........................
1 ........................
2 ........................
3 ........................
4 h.......................
5 ........................

Turn = 165.
  012345678901234567890123
0 ........................
1 ........................
2 ........................
3 ........................
4 h.......................
5 ........................

Turn = 198.
  012345678901234567890123
0 ........................
1 ........................
2 ........................
3 ........................
4 h.......................
5 ........................

Turn = 231.
  012345678901234567890123
0 ........................
1 ........................
2 ........................
3 ........................
4 h.......................
5 ........................

Turn = 264.
  012345678901234567890123
0 ........................
1 ........................
2 ........................
3 ........................
4 h.......................
5 ........................

Turn = 297.
  012345678901234567890123
0 ........................
1 ........................
2 ........................
3 ........................
4 h.......................
5 ........................

*** Darwin 12x8 ***
Turn = 0.
  01234567
0 ...t....
1 ...tt...
2 ..r.....
3 r.......
4 ...h....
5 ........
6 ....t...
7 ........
8 h.......
9 r...t...
0 .h......
1 ...r....

Turn = 197.
  01234567
0 ..ttt...
1 tttttt..
2 t..tt...
3 ........
4 ........
5 ........
6 ........
7 ........
8 ........
9 ........
0 ........
1 ........

Turn = 394.
  01234567
0 ..ttt...
1 tttttt..
2 t..tt...
3 ........
4 ........
5 ........
6 ........
7 ........
8 ........
9 ........
0 ........
1 ........

Turn = 591.
  01234567
0 ..ttt...
1 tttttt..
2 t..tt...
3 ........
4 ........
5 ........
6 ........
7 ........
8 ........
9 ........
0 ........
1 ........

Turn = 788.
  01234567
0 ..ttt...
1 tttttt..
2 t..tt...
3 ........
4 ........
5 ........
6 ........
7 ........
8 ........
9 ........
0 ........
1 ........

Turn = 985.
  01234567
0 ..ttt...
1 tttttt..
2 t..tt...
3 ........
4 ........
5 ........
6 ........
7 ........
8 ........
9 ........
0 ........
1 ........

Turn = 1182.
  01234567
0 ..ttt...
1 tttttt..
2 t..tt...
3 ........
4 ........
5 ........
6 ........
7 ........
8 ........
9 ........
0 ........
1 ........

*** Darwin 2x25 ***
Turn = 0.
  0123456789012345678901234
0 ..........hff.h..........
1 t.f............f.......f.

Turn = 53.
  0123456789012345678901234
0 ..........hff............
1 t.f...........hf.......f.

Turn = 106.
  0123456789012345678901234
0 ..........hff............
1 t.f...........hf.......f.

Turn = 159.
  0123456789012345678901234
0 ..........hff............
1 t.f...........hf.......f.

Turn = 212.
  0123456789012345678901234
0 ..........hff............
1 t.f...........hf.......f.

Turn = 265.
  0123456789012345678901234
0 ..........hff............
1 t.f...........hf.......f.

Turn = 318.
  0123456789012345678901234
0 ..........hff............
1 t.f...........hf.......f.

Turn = 371.
  0123456789012345678901234
0 ..........hff............
1 t.f...........hf.......f.

Turn = 424.
  0123456789012345678901234
0 ..........hff............
1 t.f...........hf.......f.

Turn = 477.
  0123456789012345678901234
0 ..........hff............
1 t.f...........hf.......f.

Turn = 530.
  0123456789012345678901234
0 ..........hff............
1 t.f...........hf.......f.

Turn = 583.
  0123456789012345678901234
0 ..........hff............
1 t.f...........hf.......f.

Turn = 636.
  0123456789012345678901234
0 ..........hff............
1 t.f...........hf.......f.

Turn = 689.
  0123456789012345678901234
0 ..........hff............
1 t.f...........hf.......f.

Turn = 742.
  0123456789012345678901234
0 ..........hff............
1 t.f...........hf.......f.

Turn = 795.
  0123456789012345678901234
0 ..........hff............
1 t.f...........hf.......f.

*** Darwin 5x3 ***
Turn = 0.
  012
0 rr.
1 ...
2 t..
3 ...
4 h..

Turn = 181.
  012
0 ...
1 t..
2 tt.
3 ...
4 h..

Turn = 362.
  012
0 ...
1 t..
2 tt.
3 ...
4 h..

Turn = 543.
  012
0 ...
1 t..
2 tt.
3 ...
4 h..

Turn = 724.
  012
0 ...
1 t..
2 tt.
3 ...
4 h..

Turn = 905.
  012
0 ...
1 t..
2 tt.
3 ...
4 h..

Turn = 1086.
  012
0 ...
1 t..
2 tt.
3 ...
4 h..

Turn = 1267.
  012
0 ...
1 t..
2 tt.
3 ...
4 h..

Turn = 1448.
  012
0 ...
1 t..
2 tt.
3 ...
4 h..

*** Darwin 17x22 ***
Turn = 0.
  0123456789012345678901
0 .............t........
1 ......................
2 ..r...................
3 .....t.....f..........
4 ......................
5 ......................
6 ......................
7 ................f..r..
8 f.....f...............
9 .................t....
0 .................r....
1 ......................
2 ......................
3 t.....................
4 ......................
5 ......................
6 ..................h...

Turn = 199.
  0123456789012345678901
0 ......................
1 ..r...................
2 ..rr..................
3 .....r................
4 ......................
5 ......................
6 ......................
7 ......................
8 ......................
9 .....................r
0 ......................
1 .......r.......r......
2 ......................
3 ......................
4 ...........r..........
5 ................r.....
6 ........r.........r.r.

Turn = 398.
  0123456789012345678901
0 ......................
1 ......................
2 ......................
3 ......................
4 .......r..............
5 r.....................
6 ......................
7 ......................
8 ................r.....
9 ............r.........
0 ......................
1 ...................rrr
2 ......................
3 ......................
4 ......................
5 ...................r.r
6 .......r.....r.r......

Turn = 597.
  0123456789012345678901
0 .........r..........r.
1 .........r............
2 ......................
3 ......................
4 ......................
5 ......................
6 ......................
7 ..............r.r.....
8 ......................
9 r.....................
0 ......................
1 ......................
2 ......................
3 ......................
4 .........r............
5 ......................
6 ....r..rrr...........r

Turn = 796.
  0123456789012345678901
0 ..................rr..
1 ................r.....
2 ....................rr
3 ......................
4 ......................
5 ......................
6 .....................r
7 r.....................
8 ......................
9 ......................
0 ......................
1 r.....................
2 ......................
3 ............r.........
4 ......................
5 .....r................
6 .r.r..................

*** Darwin 21x7 ***
Turn = 0.
  0123456
0 ......f
1 .....r.
2 .......
3 .......
4 .....r.
5 .......
6 .......
7 .......
8 .......
9 .......
0 .......
1 .......
2 .......
3 .......
4 .......
5 .....f.
6 .......
7 .......
8 .......
9 .......
0 .......

Turn = 146.
  0123456
0 .......
1 .......
2 .......
3 .......
4 .......
5 .......
6 .......
7 .......
8 .......
9 r......
0 .......
1 .......
2 ...r...
3 .......
4 .......
5 .....rr
6 .......
7 .......
8 .......
9 .......
0 .......

Turn = 292.
  0123456
0 .....r.
1 .......
2 r......
3 ......r
4 .......
5 .......
6 .......
7 .......
8 .......
9 .......
0 .......
1 .......
2 .......
3 .......
4 .......
5 .r.....
6 .......
7 .......
8 .......
9 .......
0 .......

Turn = 438.
  0123456
0 .......
1 .r.....
2 .......
3 .......
4 ..r....
5 .......
6 .......
7 .......
8 .......
9 .......
0 ......r
1 .......
2 .......
3 .......
4 .......
5 .......
6 .......
7 .......
8 .....r.
9 .......
0 .......

Turn = 584.
  0123456
0 .....rr
1 .......
2 .......
3 .......
4 .......
5 ..r....
6 .......
7 .......
8 .......
9 .......
0 .......
1 .......
2 .......
3 .......
4 ......r
5 .......
6 .......
7 .......
8 .......
9 .......
0 .......

Turn = 730.
  0123456
0 .......
1 .......
2 .......
3 .......
4 .......
5 .......
6 .......
7 .......
8 .......
9 .......
0 r......
1 .......
2 .......
3 .......
4 .......
5 .......
6 .......
7 .......
8 .......
9 .r.....
0 r.r....

*** Darwin 8x18 ***
Turn = 0.
  012345678901234567
0 ..t...............
1 ..................
2 ......tt..h.......
3 ..f...hr.f........
4 .h.t..r.........t.
5 ..................
6 ...f.h...........f
7 .....t.......r....

Turn = 94.
  012345678901234567
0 ..t...............
1 ..................
2 ......ttt.........
3 ..f...tt.f........
4 h..t..t.........t.
5 ..................
6 ...f.t...........f
7 .....tt...........

Turn = 188.
  012345678901234567
0 ..t...............
1 ..................
2 ......ttt.........
3 ..f...tt.f........
4 h..t..t.........t.
5 ..................
6 ...f.t...........f
7 .....tt...........

Turn = 282.
  012345678901234567
0 ..t...............
1 ..................
2 ......ttt.........
3 ..f...tt.f........
4 h..t..t.........t.
5 ..................
6 ...f.t...........f
7 .....tt...........

Turn = 376.
  012345678901234567
0 ..t...............
1 ..................
2 ......ttt.........
3 ..f...tt.f........
4 h..t..t.........t.
5 ..................
6 ...f.t...........f
7 .....tt...........

Turn = 470.
  012345678901234567
0 ..t...............
1 ..................
2 ......ttt.........
3 ..f...tt.f........
4 h..t..t.........t.
5 ..................
6 ...f.t...........f
7 .....tt...........

Turn = 564.
  012345678901234567
0 ..t...............
1 ..................
2 ......ttt.........
3 ..f...tt.f........
4 h..t..t.........t.
5 ..................
6 ...f.t...........f
7 .....tt...........

Turn = 658.
  012345678901234567
0 ..t...............
1 ..................
2 ......ttt.........
3 ..f...tt.f........
4 h..t..t.........t.
5 ..................
6 ...f.t...........f
7 .....tt...........

Turn = 752.
  012345678901234567
0 ..t...............
1 ..................
2 ......ttt.........
3 ..f...tt.f........
4 h..t..t.........t.
5 ..................
6 ...f.t...........f
7 .....tt...........

Turn = 846.
  012345678901234567
0 ..t...............
1 ..................
2 ......ttt.........
3 ..f...tt.f........
4 h..t..t.........t.
5 ..................
6 ...f.t...........f
7 .....tt...........

Turn = 940.
  012345678901234567
0 ..t...............
1 ..................
2 ......ttt.........
3 ..f...tt.f........
4 h..t..t.........t.
5 ..................
6 ...f.t...........f
7 .....tt...........

Turn = 1034.
  012345678901234567
0 ..t...............
1 ..................
2 ......ttt.........
3 ..f...tt.f........
4 h..t..t.........t.
5 ..................
6 ...f.t...........f
7 .....tt...........

*** Darwin 7x20 ***
Turn = 0.
  01234567890123456789
0 ........f...........
1 r................t..
2 ....................
3 ......r.............
4 tf.....ht........r..
5 .....fr...........t.
6 f.....t..r..t.......

Turn = 14.
  01234567890123456789
0 .......hf........r..
1 .............rr.....
2 ....................
3 t...................
4 tt......tt..........
5 t....f............t.
6 t.......r...t.......

Turn = 28.
  01234567890123456789
0 ......r....r........
1 ............r.......
2 ........r...........
3 t.......t...........
4 tt......tt.........r
5 t....f............t.
6 t.......r...........

Turn = 42.
  01234567890123456789
0 .........r.rr.......
1 ....................
2 .r..................
3 r..r................
4 r.r.................
5 t....f............tt
6 tt....r.r...........

Turn = 56.
  01234567890123456789
0 .......r.r..r...r...
1 ....................
2 .....r..............
3 ..............r...r.
4 ..r...r.............
5 t....f............tt
6 tt......r...........

Turn = 70.
  01234567890123456789
0 ..........r.........
1 ...............r....
2 ........r...........
3 ...........r........
4 ....................
5 t....rr...........tt
6 ttttt...r..r........

Turn = 84.
  01234567890123456789
0 .............r.r...r
1 ...............r....
2 ....................
3 ....................
4 t...................
5 t...t.............tt
6 ttttttt.............

Turn = 98.
  01234567890123456789
0 ..r............r....
1 ....................
2 ....................
3 ...................t
4 t..................t
5 t...t.............tt
6 ttttttt.............

Turn = 112.
  01234567890123456789
0 r.r...........r.....
1 r...................
2 ....................
3 ...................t
4 ...................t
5 r...t.............tt
6 .tttttt.............

Turn = 126.
  01234567890123456789
0 .r..................
1 .........r...r......
2 ..........r.........
3 ...................t
4 ...................t
5 ....t....r........tt
6 .tttttt.............

Turn = 140.
  01234567890123456789
0 ............r....r..
1 ................r...
2 ...............r....
3 ...................t
4 ...................t
5 ....t....r........tt
6 .tttttt.............

Turn = 154.
  01234567890123456789
0 ................r.r.
1 ..r.................
2 .r..................
3 ...................t
4 ...................t
5 ....t.............tt
6 .tttttt....r........

Turn = 168.
  01234567890123456789
0 .......r...........r
1 ...........r........
2 ....................
3 ..........r.........
4 ..................rt
5 ....t.............rt
6 ttttttt.............

Turn = 182.
  01234567890123456789
0 .....r..r....r......
1 ..............r.....
2 ....................
3 ....................
4 ...................t
5 ....t..............t
6 tttttttrr...........

Turn = 196.
  01234567890123456789
0 rr..................
1 r...................
2 ....................
3 ....................
4 ...................t
5 t...t..............t
6 tttttttt..........r.

Turn = 210.
  01234567890123456789
0 ............r.r.....
1 .............r......
2 ....................
3 ....................
4 ...................t
5 t...t.r............t
6 tttttt.r..r.........

Turn = 224.
  01234567890123456789
0 ............rrr.....
1 ....................
2 ....................
3 ...................t
4 ...................t
5 t...t.............tt
6 tttttt.............t

Turn = 238.
  01234567890123456789
0 ..................rr
1 ....................
2 ....................
3 ...................t
4 ...................t
5 t...t.............tt
6 tttttt.r...........t

Turn = 252.
  01234567890123456789
0 ....................
1 ....................
2 ....................
3 ........r..........r
4 ...........r......r.
5 t...tt............rr
6 ttttt............r.t

Turn = 266.
  01234567890123456789
0 ....................
1 ....................
2 ..............r.....
3 .....r..............
4 ....r...r..........r
5 r.r.tt..r.........r.
6 ttttt...............

Turn = 280.
  01234567890123456789
0 ...r.r..............
1 ....................
2 r...................
3 ...................r
4 r...tt..............
5 ..ttt...........r...
6 ..ttt...r........r..

Turn = 294.
  01234567890123456789
0 .rr..............rrr
1 ....r...r...........
2 ....................
3 ....................
4 .r..tt.............r
5 ...tt..rr...........
6 r...................

Turn = 308.
  01234567890123456789
0 .....r...........r..
1 ....................
2 r..r........r.......
3 ..r....r............
4 ..r....r............
5 ...tt...............
6 ..r.t...r...r..r....

Turn = 322.
  01234567890123456789
0 ..r..r..r...........
1 ......r.............
2 .rr..........r.....r
3 ......r....r.......r
4 ....................
5 ....t...............
6 r..tt.......r.......

Turn = 336.
  01234567890123456789
0 ...r.....r.........r
1 ......r............r
2 r.r.r...............
3 ....r..............r
4 r.....r.............
5 .r...........r......
6 .r.r................

Turn = 350.
  01234567890123456789
0 .....rrr....r...r...
1 ......r.............
2 ......r..r..........
3 r....rr.............
4 .r......r...........
5 r...................
6 ......r...r.........

Turn = 364.
  01234567890123456789
0 ....r............r..
1 .......r............
2 ..r..........r.....r
3 ...r....r...........
4 .........r....rr.r..
5 .............r....r.
6 ...r............r...

Turn = 378.
  01234567890123456789
0 ............rr...rr.
1 ......r.r.........r.
2 ....................
3 .............r.....r
4 ........r.....r.r...
5 ........r....r......
6 .....r.........r....

Turn = 392.
  01234567890123456789
0 r...rr.....r........
1 .r..................
2 ....................
3 ....................
4 ..r...rr.......rr..r
5 .....r........r.....
6 r.......r.........r.

Turn = 406.
  01234567890123456789
0 r.....r........r....
1 ....r.r.............
2 r...................
3 ...r................
4 .r.......r........rr
5 .......r............
6 ......rr.r......r...

Turn = 420.
  01234567890123456789
0 rr....r.r..rr.......
1 ......r............r
2 ...r.........r.....r
3 ....r..............r
4 ....r...............
5 ................r...
6 ..r.................

Turn = 434.
  01234567890123456789
0 r...........r......r
1 r....r..............
2 ..............r.....
3 ....................
4 .r............r.....
5 ..r..r..............
6 ...r..rr.r.......rr.

Turn = 448.
  01234567890123456789
0 .r.................r
1 r...................
2 ....................
3 ..r.................
4 r...rr..............
5 ..r.rr..............
6 rr.r.r.rr...........

Turn = 462.
  01234567890123456789
0 rr....r...r........r
1 ..r.r...............
2 ....................
3 ......r.............
4 ...................r
5 .....rr....r......r.
6 ......rr........r...

Turn = 476.
  01234567890123456789
0 r......r......r.r.r.
1 .r............r.r...
2 ...................r
3 ................r...
4 ..............r.....
5 ......r...r.........
6 ...r.....r.........r

Turn = 490.
  01234567890123456789
0 r.r...r..r.r....rrr.
1 ....................
2 r...............r...
3 ..r.................
4 r...................
5 ....................
6 ....rr......r......r

Turn = 504.
  01234567890123456789
0 ............r....rr.
1 ....................
2 ....................
3 ..r.r...r.......r...
4 ..rrr.....r.........
5 ....................
6 ....rrr...r...r.....

Turn = 518.
  01234567890123456789
0 rr..........r.....rr
1 ....................
2 ................r...
3 r...................
4 ......r...........rr
5 .......r..........r.
6 ..r.r.....r....r....

Turn = 532.
  01234567890123456789
0 .......rr.r.........
1 ....................
2 .........r.r........
3 ..........r.........
4 r....r...r...r......
5 .......r............
6 .rr............r..rr

Turn = 546.
  01234567890123456789
0 .....r...rr....r...r
1 ......r............r
2 ..................r.
3 r...................
4 rr..r...............
5 ..r.................
6 r......rr...........

Turn = 560.
  01234567890123456789
0 .......r..r......r.r
1 r.................rr
2 ....................
3 ..r.................
4 rr..................
5 r................r..
6 r.r.r....r..........

Turn = 574.
  01234567890123456789
0 r...rrr............r
1 ....r....r..........
2 .r.......r..........
3 ....................
4 ....r...............
5 ...r.............r..
6 r...r.r.........r...

Turn = 588.
  01234567890123456789
0 ..r.......r....r....
1 ..............r...r.
2 ....................
3 ...r..............r.
4 ..rr...............r
5 r.r...r.....r.......
6 ..r..............r..

Turn = 602.
  01234567890123456789
0 ............r......r
1 r...r...............
2 ......r.r...........
3 ............r.r..r..
4 ...r...............r
5 r............r.....r
6 .r..r...............

Turn = 616.
  01234567890123456789
0 ...........rr.....r.
1 .......r.........r..
2 ........r....r.r....
3 ..........r.........
4 ........r...........
5 ..r........r........
6 r...............rr.r

Turn = 630.
  01234567890123456789
0 .r.....r......r.....
1 .r.................r
2 r...................
3 ....................
4 ..........r.........
5 .........r.r........
6 rr.r..rr..rr........

Turn = 644.
  01234567890123456789
0 rr..............r..r
1 ...rr...............
2 r.............r.r...
3 .r..................
4 ....r...............
5 r.r...........r.....
6 r.r.................

Turn = 658.
  01234567890123456789
0 r....r..r.rrr.......
1 .........rrr........
2 ....................
3 ....................
4 ....................
5 .rr....r............
6 r..............rr..r

Turn = 672.
  01234567890123456789
0 ......r....r.r....r.
1 ........r..rr......r
2 .........r..........
3 .........r..........
4 .........r....r.....
5 .....r..............
6 ......r..r....r.....

Turn = 686.
  01234567890123456789
0 ............r....rr.
1 ....................
2 r...r...........r...
3 ...r......r....r...r
4 r..........rr.......
5 ..r.....r...........
6 .....r..............

Turn = 700.
  01234567890123456789
0 ...r....r.r..r.rr...
1 ....................
2 ..............r...r.
3 ...r..............r.
4 ..r.................
5 .........r.........r
6 ............r..rr...

Turn = 714.
  01234567890123456789
0 ...........r...r..rr
1 ....................
2 .......r............
3 ......r.............
4 ....................
5 ............r.r.....
6 r..rr...r....r.r.r.r

Turn = 728.
  01234567890123456789
0 r....r...r...r....rr
1 ....................
2 r.....r.............
3 .......r.........r..
4 ...................r
5 ....................
6 .....r.r...r.rr.....

Turn = 742.
  01234567890123456789
0 .................rrr
1 ..r..............r..
2 .r......r...........
3 ....r...............
4 ...........r..rr....
5 ....................
6 ..r.....rr...rr.....

Turn = 756.
  01234567890123456789
0 ......r.r..r.r.r....
1 ..................r.
2 ....................
3 ..........r.........
4 .............rrr....
5 r...................
6 rr.......rr....r....

Turn = 770.
  01234567890123456789
0 ........r.......rr..
1 ....................
2 ............r.......
3 .........r.........r
4 r....r....r....r....
5 .r...r.....r..r.....
6 .............r...r..

Turn = 784.
  01234567890123456789
0 ..rr.............r.r
1 ....................
2 .............r......
3 ....r..r............
4 ....................
5 .........r.r........
6 rr.r.rr..r...r......

Turn = 798.
  01234567890123456789
0 ....r.r..........r..
1 .......r...r........
2 ..r.....r...........
3 ....r...............
4 ......r.............
5 r.......r...........
6 r..rr........r....r.

Turn = 812.
  01234567890123456789
0 ......r.r........r..
1 ..............r.....
2 ..rr....r...........
3 r..r................
4 ............r.......
5 .r...........r......
6 r......rr.....r.....

Turn = 826.
  01234567890123456789
0 .r...............r.r
1 r...................
2 ....r...............
3 ............r.r.....
4 rr..................
5 .........r....r.....
6 rr..r..........rr...

Turn = 840.
  01234567890123456789
0 ...r.r..............
1 r.............r.....
2 ......r...........rr
3 ....................
4 r......r.......r....
5 r.r..r..............
6 ...rr...........r...

Turn = 854.
  01234567890123456789
0 ...r.........r.r....
1 ....................
2 ......r.............
3 ...r...............r
4 rr....r............r
5 .r..r...............
6 .r.r..r........r....

Turn = 868.
  01234567890123456789
0 ..r...r...r....r....
1 ....................
2 .r..................
3 r................r..
4 r...........r.......
5 .r.............r....
6 rrr............r...r

Turn = 882.
  01234567890123456789
0 ..r.....r......r....
1 ..............r.r...
2 ..r.....r...r.......
3 ....r.............r.
4 ...........r.r......
5 ........r...........
6 ...........rr...r...

Turn = 896.
  01234567890123456789
0 .........r....r.....
1 r......r............
2 r...............rr..
3 r...................
4 .r...........r......
5 rr.....r............
6 r.......rr..........

Turn = 910.
  01234567890123456789
0 .....r.r............
1 .....r..r.....r.r...
2 ...r.....r..........
3 r.........rr........
4 ....................
5 .....r......r.......
6 .....r........r....r

Turn = 924.
  01234567890123456789
0 ......r.......r...rr
1 .....r.....r.r.....r
2 ....r.....r....r....
3 r...................
4 ....................
5 .r.................r
6 r.................r.

Turn = 938.
  01234567890123456789
0 .r......r...........
1 ...................r
2 .................r..
3 r..................r
4 ........r.....r.....
5 ..r...r....r..r.....
6 .............rrr..r.

Turn = 952.
  01234567890123456789
0 ......r....r......rr
1 ......r.............
2 ....................
3 .r..................
4 r...................
5 .rr.r...............
6 .....rrr...r...r.r..

Turn = 966.
  01234567890123456789
0 .r...rrr...........r
1 .r..................
2 ..........r.r.......
3 ....................
4 ..........rr........
5 ...r.....r..........
6 ..r..r...r.........r

Turn = 980.
  01234567890123456789
0 r....rr.r.....r..r..
1 .........r.....r....
2 ....................
3 .r.................r
4 ....r...............
5 ..................r.
6 r...rrr.............

Turn = 994.
  01234567890123456789
0 ......r....r...r.rr.
1 ..............r....r
2 ....................
3 r......r............
4 .........r..........
5 ....r.r.............
6 r.....r.........rr..

Turn = 1008.
  01234567890123456789
0 ..r..r............r.
1 r................rrr
2 ...................r
3 ......r............r
4 ....................
5 ...r.....r..........
6 .r...rr.r...........

Turn = 1022.
  01234567890123456789
0 ..........r.r.r..rrr
1 r..................r
2 ...............r....
3 .....r..............
4 ...r.r..............
5 ............rrr.....
6 ....r...............

Turn = 1036.
  01234567890123456789
0 .....r.r.r......rr..
1 ....................
2 ....................
3 ..............r....r
4 .............r......
5 ..............r.r...
6 r..rr.......r.rr....

Turn = 1050.
  01234567890123456789
0 ...r....r........r..
1 ......r.............
2 ......r.............
3 .......rr...........
4 r...................
5 r.............r....r
6 r....r.......r.rr...

Turn = 1064.
  01234567890123456789
0 ......r.......r.....
1 ..................rr
2 ......rr............
3 r...................
4 ..r...........r.....
5 ..............r....r
6 r..r......r....rr...

Turn = 1078.
  01234567890123456789
0 ....r.r............r
1 ......r.r...........
2 .......r....r..r....
3 r..................r
4 .......r............
5 ....................
6 r..r.........r.rr...

Turn = 1092.
  01234567890123456789
0 ....rrrr..........r.
1 .......r.........r.r
2 .r.......r..........
3 ....................
4 ....................
5 r...................
6 .rr....r....rr......

Turn = 1106.
  01234567890123456789
0 ..r.r.r.r..r........
1 .......r.........r..
2 ......r......r......
3 .......r............
4 r...................
5 ....................
6 r..r......rr...r....

Turn = 1120.
  01234567890123456789
0 ..r.......rr.....rrr
1 ......rrr...........
2 ......r.r....r.....r
3 ....................
4 ....................
5 r...................
6 r...............r...

Turn = 1134.
  01234567890123456789
0 ...........r..rr...r
1 .......r...........r
2 ................r..r
3 ....................
4 ....................
5 r.............r.....
6 r........r.r..rrr...

Turn = 1148.
  01234567890123456789
0 ..r.........r..r....
1 ......r.............
2 .....r...........r..
3 ....................
4 .............r......
5 r.............r..r..
6 rrr......r..rr......

Turn = 1162.
  01234567890123456789
0 r.................r.
1 ....................
2 r.......r......r.r..
3 ....rr..............
4 r...................
5 rr..................
6 rrr...r...........r.

Turn = 1176.
  01234567890123456789
0 rr...r.............r
1 rr.................r
2 ..r....r.........r..
3 r........r..........
4 ....................
5 ......r.............
6 .....rr....r........

Turn = 1190.
  01234567890123456789
0 ..............r..rrr
1 r........r....r...rr
2 .r..................
3 ................r...
4 ....................
5 ....r...............
6 r.......r....r.....r

Turn = 1204.
  01234567890123456789
0 .....r.r......r.....
1 r...................
2 ...............r..rr
3 r.r.......r......r..
4 ....................
5 ....................
6 ....r........r.rr.r.

Turn = 1218.
  01234567890123456789
0 .r.....r............
1 .........r..........
2 .rr.........r.r.....
3 ..rr..r.............
4 ...........r........
5 r..........r.r......
6 r..................r

Turn = 1232.
  01234567890123456789
0 ......r.....r.....r.
1 .......r..........r.
2 ....r...............
3 .r..................
4 r.....r.............
5 .r......r...........
6 rrr.r.r.............

Turn = 1246.
  01234567890123456789
0 ....rr.........rr..r
1 .....r..............
2 r...................
3 rr.............r....
4 ......r.............
5 ............r.......
6 r..........rrr......

Turn = 1260.
  01234567890123456789
0 ....rr.....r...r....
1 ..................r.
2 ....rr..............
3 .....r..r...........
4 r.....r.............
5 ...........r........
6 rr..........rr......

Turn = 1274.
  01234567890123456789
0 .r....rr.r........r.
1 .....rrrr..........r
2 ......r.............
3 ....................
4 ....................
5 rr..................
6 .rr................r

Turn = 1288.
  01234567890123456789
0 r.....rrr.......r...
1 ...........r...r....
2 .................r..
3 r..................r
4 .........r..........
5 ..r..r.r............
6 .......r..r.........

Turn = 1302.
  01234567890123456789
0 ...r...r......r.rrr.
1 .rr.................
2 ....r...............
3 .....r..............
4 ....r.r.............
5 ..........r.....r...
6 ................rr..

Turn = 1316.
  01234567890123456789
0 .............r.r.rr.
1 ....r...............
2 .........r..........
3 ....................
4 ....................
5 ..r.......r.........
6 r.rrrrr..r.........r

Turn = 1330.
  01234567890123456789
0 rr....r..r..r......r
1 .r...............r..
2 .................rr.
3 ....................
4 r...................
5 ...r..r.............
6 ..r..r......r.......

Turn = 1344.
  01234567890123456789
0 .rr....r.r.......r..
1 ...r................
2 ...................r
3 ..r.................
4 .....rr.............
5 ....rr.r............
6 .....rrr............

Turn = 1358.
  01234567890123456789
0 rrr.......r.r.r...r.
1 .r..................
2 r...................
3 .........r....rr....
4 ...r................
5 ....................
6 .....rr....r........

Turn = 1372.
  01234567890123456789
0 ...r...r...r........
1 ....................
2 r...................
3 ....r...r.....r....r
4 r...................
5 rr...r.............r
6 ....r..........r...r

*** Darwin 19x23 ***
Turn = 0.
  01234567890123456789012
0 .......................
1 .......................
2 ............r..........
3 .......................
4 .......................
5 .......................
6 ..................t....
7 r......................
8 .......................
9 ..........h............
0 .......................
1 .......................
2 .......................
3 .......................
4 .......................
5 .......................
6 .......................
7 .......................
8 .......................

Turn = 33.
  01234567890123456789012
0 r..r...................
1 .......................
2 .......................
3 .......................
4 .......................
5 .......................
6 ..................t....
7 .......................
8 .......................
9 .......................
0 .......................
1 .......................
2 .......................
3 .......................
4 .......................
5 .......................
6 .......................
7 .......................
8 ..........h............

Turn = 66.
  01234567890123456789012
0 .......................
1 .......................
2 .......................
3 .......................
4 .......................
5 .......................
6 ..................t....
7 .......................
8 .....................r.
9 ......................r
0 .......................
1 .......................
2 .......................
3 .......................
4 .......................
5 .......................
6 .......................
7 .......................
8 ..........h............

Turn = 99.
  01234567890123456789012
0 .......................
1 .......................
2 .......................
3 .....................r.
4 ......................r
5 .......................
6 ..................t....
7 .......................
8 .......................
9 .......................
0 .......................
1 .......................
2 .......................
3 .......................
4 .......................
5 .......................
6 .......................
7 .......................
8 ..........h............

Turn = 132.
  01234567890123456789012
0 .......................
1 .......................
2 .......................
3 .......................
4 .......................
5 .......................
6 ..................t....
7 .......................
8 .......................
9 .......................
0 .......................
1 .......................
2 .......................
3 .......................
4 .......................
5 .......................
6 .......................
7 .......................
8 .....r.rr..............

Turn = 165.
  01234567890123456789012
0 ...r...................
1 r......................
2 .......................
3 .......................
4 ..r....................
5 .......................
6 ..................t....
7 .......................
8 .......................
9 .......................
0 .......................
1 .......................
2 .......................
3 .......................
4 .......................
5 .......................
6 .......................
7 .......................
8 .......................

Turn = 198.
  01234567890123456789012
0 .........r.............
1 .......................
2 .......................
3 .r.....................
4 .......................
5 .......................
6 ..................t....
7 .......................
8 .......................
9 .......................
0 .......................
1 .......................
2 .......................
3 .......................
4 .......................
5 .......................
6 .......................
7 .......................
8 ..............r........

Turn = 231.
  01234567890123456789012
0 .......................
1 .......................
2 .......................
3 .......................
4 .......................
5 ......................r
6 ..................t....
7 .......................
8 .......................
9 .......................
0 .......................
1 .......................
2 .......................
3 .......................
4 r......................
5 .......................
6 .......................
7 .......................
8 ........r..............

Turn = 264.
  01234567890123456789012
0 ......................r
1 .......................
2 .......................
3 .......................
4 .......................
5 .......................
6 ..................t....
7 .......................
8 .......................
9 .......................
0 .......................
1 .......................
2 .......................
3 .......................
4 .......................
5 .......................
6 .......................
7 .......................
8 r.r....................

Turn = 297.
  01234567890123456789012
0 ..........r..r.........
1 .......................
2 .......................
3 .......................
4 .......................
5 .......................
6 ..................t....
7 .......................
8 .......................
9 .......................
0 .......................
1 .......................
2 .......................
3 .......................
4 .......................
5 .......................
6 .......................
7 .......................
8 ..........r............

Turn = 330.
  01234567890123456789012
0 r......................
1 .......................
2 .......................
3 .......................
4 .......................
5 .......................
6 ..................t....
7 .......................
8 .......................
9 .......................
0 .......................
1 .......................
2 .......................
3 .......................
4 .......................
5 .......................
6 .......................
7 ......................r
8 .....................r.

Turn = 363.
  01234567890123456789012
0 .......................
1 .......................
2 .......................
3 .......................
4 .......................
5 .......................
6 ..................t....
7 .......................
8 .......................
9 .......................
0 .......................
1 .......................
2 .......................
3 .......................
4 .....................r.
5 ......................r
6 .......................
7 .......................
8 ............r..........

Turn = 396.
  01234567890123456789012
0 .......................
1 .......................
2 .......................
3 .......................
4 .......................
5 ....................r..
6 ..................t....
7 .......................
8 .......................
9 .....................r.
0 .......................
1 .......................
2 .......................
3 .......................
4 .......................
5 .......................
6 .......................
7 .......................
8 r......................

Turn = 429.
  01234567890123456789012
0 .......................
1 .......................
2 .......................
3 .......................
4 .......................
5 .......................
6 ..................t....
7 .......................
8 .......................
9 .......................
0 .......................
1 .......................
2 .......................
3 .......................
4 .......................
5 .......................
6 .......................
7 .......................
8 rrr....................

*** Darwin 9x1 ***
Turn = 0.
  0
0 .
1 .
2 f
3 .
4 .
5 .
6 .
7 .
8 .

Turn = 85.
  0
0 .
1 .
2 f
3 .
4 .
5 .
6 .
7 .
8 .

Turn = 170.
  0
0 .
1 .
2 f
3 .
4 .
5 .
6 .
7 .
8 .

Turn = 255.
  0
0 .
1 .
2 f
3 .
4 .
5 .
6 .
7 .
8 .

Turn = 340.
  0
0 .
1 .
2 f
3 .
4 .
5 .
6 .
7 .
8 .

Turn = 425.
  0
0 .
1 .
2 f
3 .
4 .
5 .
6 .
7 .
8 .

Turn = 510.
  0
0 .
1 .
2 f
3 .
4 .
5 .
6 .
7 .
8 .

Turn = 595.
  0
0 .
1 .
2 f
3 .
4 .
5 .
6 .
7 .
8 .

Turn = 680.
  0
0 .
1 .
2 f
3 .
4 .
5 .
6 .
7 .
8 .

Turn = 765.
  0
0 .
1 .
2 f
3 .
4 .
5 .
6 .
7 .
8 .

Turn = 850.
  0
0 .
1 .
2 f
3 .
4 .
5 .
6 .
7 .
8 .

Turn = 935.
  0
0 .
1 .
2 f
3 .
4 .
5 .
6 .
7 .
8 .

Turn = 1020.
  0
0 .
1 .
2 f
3 .
4 .
5 .
6 .
7 .
8 .

*** Darwin 24x14 ***
Turn = 0.
  01234567890123
0 .f.....r......
1 .r............
2 ..............
3 ........f.....
4 .....th.t.....
5 ..............
6 ..............
7 ......r.......
8 ..............
9 .........t....
0 .....t.......r
1 ..............
2 ..............
3 .........r....
4 ..............
5 .......t...r..
6 ..............
7 ..............
8 ..............
9 ..............
0 ..............
1 ...r..........
2 ..............
3 ..............

Turn = 107.
  01234567890123
0 ..............
1 ..............
2 ..............
3 ........tt....
4 ..r..ttt.t....
5 ..............
6 ..............
7 ..............
8 ..............
9 ..............
0 .....t.......r
1 ..............
2 ..............
3 ..............
4 ..............
5 ......tt.....r
6 ..............
7 ..............
8 ..............
9 ..............
0 ..............
1 ........r.....
2 .......r......
3 ......r.......

Turn = 214.
  01234567890123
0 ..............
1 ..............
2 ..............
3 ........tt....
4 .....ttt.t...r
5 ..............
6 ..............
7 ..............
8 .............r
9 ..............
0 ..............
1 ..............
2 ..............
3 ..............
4 ..............
5 ......tt......
6 .......t......
7 r.............
8 ..............
9 ..............
0 ..............
1 ..............
2 ....r.........
3 r.....r.......

Turn = 321.
  01234567890123
0 ...r..........
1 ....r.........
2 ..............
3 ........tt....
4 .....ttt.t....
5 ..............
6 ..............
7 ..............
8 ..............
9 ..............
0 ..............
1 ..............
2 ..............
3 ..............
4 ..............
5 ......tt.....r
6 r......t......
7 ..............
8 .r............
9 ..............
0 ..............
1 ..............
2 ..............
3 ....r.........

Turn = 428.
  01234567890123
0 ......r.......
1 ..............
2 ..............
3 ........tt...r
4 .....ttt.t..r.
5 ..............
6 ..............
7 ..............
8 ..............
9 ..............
0 ..............
1 ..............
2 ..............
3 ..............
4 ..............
5 ......tt......
6 r.....tt......
7 ..............
8 ..............
9 ..............
0 ..............
1 ..............
2 ..............
3 ..r...........

*** Darwin 10x16 ***
Turn = 0.
  0123456789012345
0 ................
1 ............h...
2 .f..............
3 ................
4 ..............f.
5 .......r........
6 ................
7 .......t.f......
8 ...fr...........
9 ................

Turn = 106.
  0123456789012345
0 ................
1 ................
2 .f..............
3 ................
4 ..............f.
5 ................
6 .......t........
7 .......t.f......
8 r.........r.....
9 ..........r.....

Turn = 212.
  0123456789012345
0 r.....r....r.r.r
1 r..r............
2 ................
3 ................
4 ................
5 ................
6 ................
7 ................
8 ................
9 ...r............

Turn = 318.
  0123456789012345
0 ...........r....
1 .r..............
2 ................
3 .......r......r.
4 ...............r
5 .............r..
6 ................
7 ................
8 ................
9 r.........r.....

Turn = 424.
  0123456789012345
0 ............r..r
1 .r..............
2 ................
3 .......r..r.....
4 ................
5 ................
6 ................
7 ........r.......
8 ................
9 .....r...r......

Turn = 530.
  0123456789012345
0 ................
1 .....r..........
2 .....r..........
3 ....r..........r
4 ...............r
5 ................
6 ................
7 ................
8 r..............r
9 ............r...

Turn = 636.
  0123456789012345
0 ............r..r
1 ................
2 ...........rr...
3 ................
4 ................
5 ................
6 ................
7 ..............r.
8 ................
9 .r......rr......

Turn = 742.
  0123456789012345
0 .r..........r...
1 ................
2 ................
3 ................
4 ................
5 r...r.r.........
6 ................
7 ................
8 .............r..
9 .............r.r

Turn = 848.
  0123456789012345
0 r.........r.....
1 .r..............
2 ................
3 ................
4 ................
5 ................
6 ...............r
7 .........r......
8 ................
9 ...rr..r........

Turn = 954.
  0123456789012345
0 ............r.r.
1 .............r..
2 ............r...
3 ................
4 r...............
5 ................
6 ........r.......
7 ....r...........
8 ................
9 .r..............

Turn = 1060.
  0123456789012345
0 .......r....r.r.
1 ..............r.
2 ...............r
3 ................
4 ................
5 ................
6 ................
7 r......r........
8 ................
9 ..r.............

Turn = 1166.
  0123456789012345
0 .rr.............
1 ................
2 ...r...........r
3 ...............r
4 ................
5 ..............r.
6 ................
7 ................
8 ..........r.....
9 r...............

Turn = 1272.
  0123456789012345
0 .r..........r...
1 ................
2 ................
3 ................
4 ..........r...rr
5 .............r..
6 r...............
7 ................
8 ................
9 .............r..

Turn = 1378.
  0123456789012345
0 .....r.......r..
1 .....r........r.
2 ......r........r
3 ................
4 ................
5 ........r.......
6 ................
7 ....r...........
8 ................
9 ................

Turn = 1484.
  0123456789012345
0 ........rr......
1 ....r...........
2 ................
3 ................
4 .......r........
5 .........r......
6 ................
7 ................
8 ................
9 rr.....r........

*** Darwin 3x7 ***
Turn = 0.
  0123456
0 .r.r..t
1 ..ff..f
2 .hh..hf

Turn = 140.
  0123456
0 rr....r
1 rr.....
2 rrr.rr.

Turn = 280.
  0123456
0 .rrr.r.
1 .rr....
2 r..rr.r

Turn = 420.
  0123456
0 ...rr.r
1 rr..r.r
2 r..rr..

Turn = 560.
  0123456
0 rr.r.r.
1 ..rr..r
2 .rr.r..

Turn = 700.
  0123456
0 rrr....
1 r..rr.r
2 r..r..r

*** Darwin 5x17 ***
Turn = 0.
  01234567890123456
0 ...t..r.......t..
1 .................
2 ..........r..rhth
3 .f.....r.....h...
4 ............r..f.

Turn = 145.
  01234567890123456
0 rr...r......r.r..
1 rr....r.........r
2 ..r..............
3 ............rr...
4 .......r.........

Turn = 290.
  01234567890123456
0 .r......rr.r..r..
1 ..r..............
2 .............r...
3 r.........r......
4 r..r.....rr......

Turn = 435.
  01234567890123456
0 .r.....r..r..rr..
1 ..............r..
2 .................
3 ...............r.
4 ...rrr.r......r.r

Turn = 580.
  01234567890123456
0 ...............rr
1 ...r......r.....r
2 ....r......r.....
3 r...............r
4 rr.......r..r....

Turn = 725.
  01234567890123456
0 r...r...r.......r
1 r................
2 ..r.....r........
3 .............r...
4 ...r..r.r..r..r..

*** Darwin 24x23 ***
Turn = 0.
  01234567890123456789012
0 .......................
1 .......................
2 .......................
3 ..r....................
4 .......................
5 .......................
6 .......................
7 .......................
8 ....t..................
9 .......................
0 .......................
1 .......................
2 .......................
3 ............h..........
4 .......................
5 ........r..............
6 .f.....................
7 .......................
8 .......................
9 .......................
0 .......................
1 .......................
2 ..............r........
3 .......................

Turn = 137.
  01234567890123456789012
0 .......................
1 .......................
2 .......................
3 .......................
4 .......................
5 ......................r
6 .......................
7 .......................
8 r...t..................
9 .......................
0 .......................
1 .......................
2 ......r................
3 .......................
4 .......................
5 .......................
6 .f.....................
7 .......................
8 .......................
9 .......................
0 .......................
1 r......................
2 .......................
3 .......................

Turn = 274.
  01234567890123456789012
0 r......................
1 ......................r
2 .r.....................
3 .......................
4 .......................
5 .......................
6 .......................
7 ......................r
8 ....tt.................
9 .......................
0 .......................
1 .......................
2 .......................
3 .......................
4 .......................
5 .......................
6 .......................
7 .......................
8 .......................
9 .......................
0 .......................
1 .......................
2 .......................
3 .......................

Turn = 411.
  01234567890123456789012
0 .....rr................
1 .......................
2 .......................
3 .......................
4 ..........r............
5 .......................
6 .......................
7 .......................
8 ....tt.................
9 .......................
0 ......................r
1 .......................
2 .......................
3 .......................
4 .......................
5 .......................
6 .......................
7 .......................
8 .......................
9 .......................
0 .......................
1 .......................
2 .......................
3 .......................

Turn = 548.
  01234567890123456789012
0 .......................
1 .......................
2 .......................
3 .......................
4 ........r..............
5 .......................
6 .......................
7 .......................
8 ....tt.................
9 .......................
0 .......................
1 .......................
2 .......................
3 .......................
4 .......................
5 .......................
6 .......................
7 .......................
8 .......................
9 r......................
0 ......................r
1 .......................
2 .......................
3 ................r......

Turn = 685.
  01234567890123456789012
0 ..........r............
1 .......................
2 .......................
3 .......................
4 .......................
5 .......................
6 .......................
7 .......................
8 ....tt.................
9 .......................
0 .......................
1 .......................
2 ....................r..
3 .......................
4 .......................
5 ......................r
6 .......................
7 .......................
8 .......................
9 .......................
0 ......................r
1 .......................
2 .......................
3 .......................

*** Darwin 4x18 ***
Turn = 0.
  012345678901234567
0 h.................
1 .....f......f.....
2 ..............t...
3 .................h

Turn = 127.
  012345678901234567
0 h................h
1 .....f......f.....
2 ..............t...
3 ..................

Turn = 254.
  012345678901234567
0 h................h
1 .....f......f.....
2 ..............t...
3 ..................

Turn = 381.
  012345678901234567
0 h................h
1 .....f......f.....
2 ..............t...
3 ..................

Turn = 508.
  012345678901234567
0 h................h
1 .....f......f.....
2 ..............t...
3 ..................

Turn = 635.
  012345678901234567
0 h................h
1 .....f......f.....
2 ..............t...
3 ..................

*** Darwin 19x18 ***
Turn = 0.
  012345678901234567
0 ..f.rt............
1 ..................
2 ..................
3 r.......f.........
4 ..................
5 ..................
6 ..................
7 ....r.............
8 ..................
9 h...r...f....h..f.
0 .........h........
1 ..................
2 .f................
3 ...........h......
4 ..................
5 .t................
6 ..............h...
7 ......f...........
8 ...........f......

Turn = 178.
  012345678901234567
0 ...r......r.......
1 .....r..r.........
2 ......r...........
3 ..................
4 ..................
5 ..................
6 ..r...............
7 .r................
8 ..r...............
9 .............r....
0 .............r....
1 .................r
2 ..................
3 ..r...............
4 ..................
5 ..................
6 ..................
7 ..........r.......
8 .....r...rrr..r...

Turn = 356.
  012345678901234567
0 r.................
1 r.................
2 ...............r..
3 ......r...........
4 ..................
5 ..................
6 .........r........
7 ..................
8 ............r.....
9 ..................
0 ..................
1 ................r.
2 ..................
3 ..........rr......
4 ..................
5 ...r...r..........
6 ........r.........
7 r......r..........
8 rrr.....r.........

Turn = 534.
  012345678901234567
0 ...............r.r
1 r......r..........
2 ..................
3 .............r...r
4 ..................
5 r................r
6 ..................
7 ..................
8 r...............r.
9 .r................
0 ..................
1 ...............r..
2 ...............r..
3 .............r....
4 ..........r.......
5 .......r..........
6 ........r.........
7 ..................
8 .............r....

Turn = 712.
  012345678901234567
0 ..............r..r
1 ..............r...
2 ..................
3 ..................
4 ..........r....r.r
5 ...............r..
6 ..................
7 ..............r...
8 ...............r..
9 ...r..............
0 ....r.............
1 .....r...........r
2 ..................
3 ..................
4 ..r...............
5 r..............r..
6 ...............r..
7 ..................
8 ....r.............

Turn = 890.
  012345678901234567
0 ..................
1 .......r..........
2 .................r
3 ..................
4 .r................
5 ..................
6 r..............r..
7 ................r.
8 ..................
9 .............r....
0 r................r
1 r.................
2 .r................
3 ....r.............
4 ..................
5 ...r.............r
6 ......r...........
7 .........r........
8 .r....r...........

Turn = 1068.
  012345678901234567
0 .................r
1 .................r
2 r.......r..r......
3 ..................
4 ..................
5 ............r....r
6 ............r....r
7 .................r
8 ..................
9 ..................
0 ..r...............
1 ..................
2 ..................
3 ..................
4 ..................
5 .............r....
6 .................r
7 .....r............
8 r......r...r...r..

Turn = 1246.
  012345678901234567
0 r.rr..............
1 ..r...............
2 ..................
3 ..................
4 ..................
5 rr................
6 ..................
7 .rr...............
8 rrr...............
9 ................r.
0 ................r.
1 ..................
2 ..................
3 ..................
4 ..................
5 ..................
6 ............r...rr
7 .................r
8 ...............r..

Turn = 1424.
  012345678901234567
0 ..................
1 ..................
2 ................r.
3 .................r
4 .r.........r......
5 r.................
6 ..............r...
7 .................r
8 ...........r..r...
9 .................r
0 ..................
1 r.................
2 .........r.......r
3 r.........r.......
4 ..................
5 .....r............
6 ....r.............
7 ..................
8 .........r........

*** Darwin 13x13 ***
Turn = 0.
  0123456789012
0 .............
1 .............
2 ............f
3 h.f..........
4 r.......r....
5 ...t.........
6 ..t....h...r.
7 .f....r....t.
8 .............
9 .......tf....
0 ..f....t.....
1 .t..t........
2 ....t........

Turn = 128.
  0123456789012
0 .............
1 .............
2 .............
3 .hf..........
4 .............
5 ...t.........
6 ..tt.......t.
7 ..t........tt
8 ............t
9 .......tt....
0 .tt....t.....
1 tt..t........
2 t............

Turn = 256.
  0123456789012
0 .............
1 .............
2 .............
3 .hf..........
4 .............
5 ...t.........
6 ..tt.......t.
7 ..t........tt
8 ............t
9 .......tt....
0 .tt....t.....
1 tt..t........
2 t............

Turn = 384.
  0123456789012
0 .............
1 .............
2 .............
3 .hf..........
4 .............
5 ...t.........
6 ..tt.......t.
7 ..t........tt
8 ............t
9 .......tt....
0 .tt....t.....
1 tt..t........
2 t............

Turn = 512.
  0123456789012
0 .............
1 .............
2 .............
3 .hf..........
4 .............
5 ...t.........
6 ..tt.......t.
7 ..t........tt
8 ............t
9 .......tt....
0 .tt....t.....
1 tt..t........
2 t............

Turn = 640.
  0123456789012
0 .............
1 .............
2 .............
3 .hf..........
4 .............
5 ...t.........
6 ..tt.......t.
7 ..t........tt
8 ............t
9 .......tt....
0 .tt....t.....
1 tt..t........
2 t............

Turn = 768.
  0123456789012
0 .............
1 .............
2 .............
3 .hf..........
4 .............
5 ...t.........
6 ..tt.......t.
7 ..t........tt
8 ............t
9 .......tt....
0 .tt....t.....
1 tt..t........
2 t............

Turn = 896.
  0123456789012
0 .............
1 .............
2 .............
3 .hf..........
4 .............
5 ...t.........
6 ..tt.......t.
7 ..t........tt
8 ............t
9 .......tt....
0 .tt....t.....
1 tt..t........
2 t............

Turn = 1024.
  0123456789012
0 .............
1 .............
2 .............
3 .hf..........
4 .............
5 ...t.........
6 ..tt.......t.
7 ..t........tt
8 ............t
9 .......tt....
0 .tt....t.....
1 tt..t........
2 t............

*** Darwin 22x4 ***
Turn = 0.
  0123
0 ....
1 ....
2 ..h.
3 ....
4 ..f.
5 t...
6 ...f
7 tf..
8 ...h
9 .t.h
0 h...
1 ..r.
2 ....
3 ....
4 ....
5 ....
6 ...r
7 fft.
8 ....
9 ....
0 t..f
1 ....

Turn = 42.
  0123
0 ....
1 rr..
2 ...r
3 ...r
4 r...
5 r...
6 r..r
7 ....
8 r...
9 ....
0 ....
1 ....
2 ....
3 ....
4 ..r.
5 ....
6 .t.r
7 .ttt
8 ....
9 r...
0 r...
1 ....

Turn = 84.
  0123
0 ....
1 ....
2 ....
3 ....
4 ....
5 ....
6 ....
7 ...r
8 r...
9 ....
0 r...
1 ....
2 ....
3 ....
4 ....
5 ..tr
6 tttr
7 tttt
8 .ttt
9 ....
0 ...r
1 ....

Turn = 126.
  0123
0 r.rr
1 r..r
2 ....
3 r...
4 ..rr
5 ....
6 .r..
7 ..r.
8 .r..
9 ...r
0 ...r
1 ....
2 r..r
3 ....
4 r...
5 ....
6 ....
7 ....
8 ....
9 ....
0 ....
1 r...

Turn = 168.
  0123
0 ....
1 ....
2 ....
3 ....
4 r...
5 ....
6 ....
7 r...
8 ....
9 .r..
0 ....
1 rrr.
2 ...r
3 ...r
4 ..rr
5 ....
6 ....
7 ....
8 ....
9 rr..
0 .r.r
1 rrr.

Turn = 210.
  0123
0 r..r
1 ..rr
2 ....
3 ...r
4 ...r
5 ....
6 ....
7 ...r
8 ....
9 ....
0 rr..
1 ....
2 ..r.
3 ....
4 r...
5 ....
6 ...r
7 ...r
8 r...
9 r...
0 ..r.
1 .r..

Turn = 252.
  0123
0 .rr.
1 ...r
2 ....
3 ....
4 ....
5 ..r.
6 ...r
7 ....
8 ....
9 .r.r
0 ....
1 ....
2 ....
3 ....
4 .r..
5 ....
6 r...
7 r...
8 .r.r
9 rrr.
0 rr..
1 ....

Turn = 294.
  0123
0 ..r.
1 r..r
2 r...
3 r...
4 ....
5 ....
6 ...r
7 ...r
8 ....
9 ....
0 ....
1 ..r.
2 r...
3 .r.r
4 ..r.
5 ...r
6 ...r
7 ....
8 ....
9 r...
0 rr..
1 ....

Turn = 336.
  0123
0 ..rr
1 ...r
2 ..r.
3 ...r
4 r...
5 ....
6 ...r
7 ...r
8 .r.r
9 ....
0 ..rr
1 ....
2 ...r
3 ..r.
4 ....
5 ....
6 ....
7 ...r
8 ....
9 r..r
0 ....
1 ....

Turn = 378.
  0123
0 ....
1 ....
2 r..r
3 .rr.
4 ..r.
5 r.r.
6 ....
7 ....
8 ....
9 ....
0 r...
1 ...r
2 ....
3 ....
4 ...r
5 ....
6 rr..
7 r..r
8 ...r
9 ....
0 ....
1 ..rr

Turn = 420.
  0123
0 rr..
1 ..r.
2 ....
3 r..r
4 ...r
5 ...r
6 ..r.
7 ....
8 ....
9 ...r
0 ...r
1 ..r.
2 ..r.
3 ....
4 ...r
5 ....
6 ....
7 .r..
8 ..r.
9 ....
0 ...r
1 r...

Turn = 462.
  0123
0 ...r
1 ....
2 ....
3 ..r.
4 r.rr
5 r.rr
6 rrr.
7 ..r.
8 .r..
9 .r..
0 ....
1 ....
2 ....
3 ....
4 ....
5 ....
6 r...
7 ....
8 ....
9 r...
0 ....
1 r...

Turn = 504.
  0123
0 r.r.
1 .r.r
2 ....
3 ....
4 r...
5 ....
6 ..rr
7 ....
8 ...r
9 ...r
0 r...
1 ....
2 r...
3 ....
4 ..r.
5 ....
6 ....
7 r...
8 ....
9 r...
0 .r..
1 ..rr

*** Darwin 2x14 ***
Turn = 0.
  01234567890123
0 f..h..t.......
1 ....rht.ft....

Turn = 87.
  01234567890123
0 r......r....rr
1 .r....r...r.r.

Turn = 174.
  01234567890123
0 ..rr..r.....r.
1 r.rr...r......

Turn = 261.
  01234567890123
0 r.....r..r.r..
1 r.........rr.r

Turn = 348.
  01234567890123
0 .r..r..r....r.
1 r...rr.......r

Turn = 435.
  01234567890123
0 ......r...rrrr
1 ...r...r..r...

Turn = 522.
  01234567890123
0 .....rr.r..rr.
1 r....r.......r

Turn = 609.
  01234567890123
0 .r.r..........
1 r.r.r..rrr....

Turn = 696.
  01234567890123
0 r.rr........rr
1 r.r..r........

Turn = 783.
  01234567890123
0 .....rrr..r.rr
1 ......r.....r.

Turn = 870.
  01234567890123
0 ....rr..r.....
1 r.rr...r.....r

Turn = 957.
  01234567890123
0 ..r...r..r.r..
1 rr..r.r.......

Turn = 1044.
  01234567890123
0 ....r.r......r
1 .rr...r...r..r

Turn = 1131.
  01234567890123
0 .r........rrrr
1 .r..r......r..

Turn = 1218.
  01234567890123
0 .r..r..r...rrr
1 r............r

Turn = 1305.
  01234567890123
0 rr....r......r
1 ....r.r....r.r

Turn = 1392.
  01234567890123
0 ...rr...r..r..
1 ........rr.rr.
