20

22 27
5
r 8 22 s
h 8 25 e
r 10 7 s
r 6 4 w
f 2 18 n
367 45

21 19
19
h 14 1 w
f 14 13 e
f 2 10 w
r 10 9 s
t 10 17 e
f 8 8 w
h 7 4 e
t 10 1 n
r 14 2 n
f 13 8 w
h 14 3 e
r 15 8 w
h 7 12 s
r 14 16 w
r 5 8 e
t 18 7 w
f 19 10 s
f 2 15 n
f 13 3 n
305 33

44 3
3
t 33 0 w
r 13 1 s
r 36 0 e
496 47

44 38
5
r 9 10 e
f 23 35 s
h 21 14 e
r 29 17 w
t 30 5 w
306 44

43 32
10
t 9 2 s
t 27 13 n
h 7 2 s
r 26 30 w
t 39 4 s
r 2 11 e
h 18 8 w
t 40 16 n
r 36 0 s
f 37 8 n
145 39

43 6
11
f 6 4 e
r 16 5 s
r 34 3 s
f 18 4 s
f 31 4 s
t 23 1 s
t 21 0 e
t 40 4 n
h 3 1 w
f 9 4 e
f 28 3 s
287 46

6 14
18
h 0 6 e
h 3 12 s
h 0 0 w
f 0 2 n
h 1 2 s
f 2 3 s
f 3 6 w
h 4 4 n
t 1 13 w
t 4 9 n
r 3 3 s
f 1 3 e
f 1 6 s
t 1 13 n
r 3 13 w
f 2 9 n
h 0 9 w
t 3 6 n
346 32

3 42
16
t 1 3 e
r 0 8 n
h 2 15 e
t 1 14 e
r 1 26 w
t 1 14 e
h 2 35 e
h 0 26 n
t 0 23 e
h 0 2 w
f 2 27 n
f 2 3 n
h 1 13 e
h 2 33 e
t 2 24 s
t 0 39 n
307 36

4 5
6
h 3 3 n
f 3 3 w
r 1 4 n
h 2 2 w
t 2 2 w
r 1 4 w
101 30

29 34
10
r 4 9 w
f 12 7 s
t 24 21 w
h 17 12 w
t 6 33 s
r 28 7 n
r 12 29 e
t 8 16 e
h 1 0 s
f 16 6 s
409 36

44 34
7
t 36 8 s
t 41 23 w
f 16 33 n
f 29 26 w
f 14 27 e
f 21 17 n
t 26 16 w
328 44

17 21
8
f 8 13 e
h 4 10 s
h 10 4 s
t 0 11 e
f 15 14 w
f 8 12 n
t 6 4 n
t 15 18 e
266 46

16 16
15
r 10 13 e
f 2 7 w
f 4 9 n
f 12 2 e
h 12 0 s
h 14 5 s
t 0 6 e
r 2 11 n
t 2 2 e
f 6 12 e
h 1 5 e
r 0 8 n
t 14 6 e
r 5 15 w
r 7 3 s
337 40

31 42
14
f 22 15 s
r 27 39 n
f 28 3 e
f 25 17 s
t 5 14 e
t 2 29 s
h 8 32 e
t 19 16 e
r 23 1 s
r 26 5 w
h 29 2 n
f 19 22 s
h 2 40 w
h 17 24 n
381 30

43 33
1
r 26 19 s
380 48

35 44
5
t 3 31 e
r 4 25 w
t 18 39 e
h 0 7 w
t 13 2 e
287 32

47 39
11
h 37 33 n
h 7 33 e
r 24 0 n
h 12 13 n
f 17 26 s
h 31 25 n
f 0 37 s
f 17 16 e
t 34 16 e
f 45 24 n
h 31 0 n
306 36

44 10
7
f 38 1 n
f 22 0 s
t 15 3 n
h 15 6 w
t 19 8 e
f 22 4 n
h 38 1 e
11 46

9 7
10
r 0 0 e
r 2 1 w
r 7 3 e
f 3 2 n
f 4 6 w
f 3 0 w
r 8 0 n
t 6 3 n
f 6 1 w
f 8 0 s
369 41

21 12
16
r 14 0 s
r 19 9 s
h 4 8 w
t 7 9 e
f 15 11 s
h 2 5 s
h 15 9 s
t 16 5 w
t 11 4 w
r 4 1 s
r 20 0 s
r 12 5 s
r 13 5 n
r 15 5 e
r 20 11 s
f 10 11 n
420 30
