*** Darwin 17x11 ***
Turn = 0.
  01234567890
0 ...........
1 ...........
2 ...........
3 ...........
4 ...........
5 r..........
6 ...........
7 ...........
8 ...........
9 ...........
0 ...........
1 ...........
2 ...........
3 ...........
4 ...........
5 ..f........
6 ...........

*** Darwin 18x8 ***
Turn = 0.
  01234567
0 h.......
1 ........
2 .f......
3 .....h..
4 ........
5 ........
6 ........
7 r.......
8 h.......
9 t.t.....
0 ........
1 ...t....
2 ......h.
3 ........
4 ........
5 ........
6 ........
7 ....h...

Turn = 2.
  01234567
0 h.......
1 .....h..
2 .f......
3 ........
4 ........
5 ........
6 ........
7 ..r.....
8 ..h.....
9 t.t.....
0 ........
1 ...t....
2 ........
3 ........
4 ......h.
5 ........
6 ........
7 ......h.

Turn = 4.
  01234567
0 h....h..
1 ........
2 .f......
3 ........
4 ........
5 ........
6 ........
7 ....r...
8 ....h...
9 t.t.....
0 ........
1 ...t....
2 ........
3 ........
4 ........
5 ........
6 ......h.
7 .......h

Turn = 6.
  01234567
0 h....h..
1 ........
2 .f......
3 ........
4 ........
5 ........
6 ........
7 ......r.
8 ......h.
9 t.t.....
0 ........
1 ...t....
2 ........
3 ........
4 ........
5 ........
6 ........
7 ......hh

Turn = 8.
  01234567
0 h....h..
1 ........
2 .f......
3 ........
4 ........
5 ........
6 ........
7 .......r
8 .......h
9 t.t.....
0 ........
1 ...t....
2 ........
3 ........
4 ........
5 ........
6 ........
7 ......hh

Turn = 10.
  01234567
0 h....h..
1 ........
2 .f......
3 ........
4 ........
5 ........
6 ........
7 .......r
8 .......r
9 t.t.....
0 ........
1 ...t....
2 ........
3 ........
4 ........
5 ........
6 ........
7 ......hh

Turn = 12.
  01234567
0 h....h..
1 ........
2 .f......
3 ........
4 ........
5 ........
6 ........
7 .....r..
8 ........
9 t.t....r
0 ........
1 ...t....
2 ........
3 ........
4 ........
5 ........
6 ........
7 ......hh

Turn = 14.
  01234567
0 h....h..
1 ........
2 .f......
3 ........
4 ........
5 ........
6 ........
7 ...r....
8 ........
9 t.t.....
0 ........
1 ...t...r
2 ........
3 ........
4 ........
5 ........
6 ........
7 ......hh

Turn = 16.
  01234567
0 h....h..
1 ........
2 .f......
3 ........
4 ........
5 ........
6 ........
7 .r......
8 ........
9 t.t.....
0 ........
1 ...t....
2 ........
3 .......r
4 ........
5 ........
6 ........
7 ......hh

*** Darwin 9x16 ***
Turn = 0.
  0123456789012345
0 ...........h....
1 f...............
2 ................
3 ................
4 .....r..........
5 ................
6 ................
7 ..............f.
8 ................

Turn = 3.
  0123456789012345
0 ........h.......
1 f...............
2 ................
3 ................
4 ................
5 ................
6 ................
7 .....r........f.
8 ................

Turn = 6.
  0123456789012345
0 .....h..........
1 f...............
2 ................
3 ................
4 ................
5 ................
6 ................
7 ..............f.
8 ....r...........

Turn = 9.
  0123456789012345
0 ..h.............
1 f...............
2 ................
3 ................
4 ................
5 ................
6 ................
7 ..............f.
8 .r..............

Turn = 12.
  0123456789012345
0 h...............
1 f...............
2 ................
3 ................
4 ................
5 ................
6 ................
7 ..............f.
8 r...............

Turn = 15.
  0123456789012345
0 h...............
1 f...............
2 ................
3 ................
4 ................
5 ................
6 r...............
7 ..............f.
8 ................

Turn = 18.
  0123456789012345
0 h...............
1 f...............
2 ................
3 r...............
4 ................
5 ................
6 ................
7 ..............f.
8 ................

*** Darwin 18x12 ***
Turn = 0.
  012345678901
0 ............
1 ............
2 ............
3 ............
4 ............
5 ............
6 .....r......
7 ............
8 ............
9 ............
0 ............
1 ............
2 ............
3 ............
4 .....t......
5 ............
6 t...........
7 ............

Turn = 5.
  012345678901
0 ............
1 ............
2 ............
3 ............
4 ............
5 ............
6 r...........
7 ............
8 ............
9 ............
0 ............
1 ............
2 ............
3 ............
4 .....t......
5 ............
6 t...........
7 ............

Turn = 10.
  012345678901
0 ............
1 ............
2 r...........
3 ............
4 ............
5 ............
6 ............
7 ............
8 ............
9 ............
0 ............
1 ............
2 ............
3 ............
4 .....t......
5 ............
6 t...........
7 ............

*** Darwin 9x17 ***
Turn = 0.
  01234567890123456
0 ......h...f......
1 .........h.......
2 .................
3 ............r....
4 ...............h.
5 .................
6 .................
7 ..............t..
8 ..........r......

Turn = 5.
  01234567890123456
0 ......h..hf......
1 .................
2 .................
3 ................r
4 ................h
5 .................
6 .................
7 ..............t..
8 .....r...........

*** Darwin 19x13 ***
Turn = 0.
  0123456789012
0 .............
1 .............
2 ............t
3 .............
4 .............
5 .............
6 ............f
7 .............
8 .............
9 .............
0 .............
1 .............
2 .............
3 ......t....r.
4 .............
5 .............
6 .............
7 .............
8 .t...........

*** Darwin 7x12 ***
Turn = 0.
  012345678901
0 ..h.........
1 ............
2 ...ff.......
3 ........h...
4 .........ht.
5 .........h..
6 t...........

Turn = 8.
  012345678901
0 .........h..
1 ............
2 ...ff.......
3 ...........h
4 ..........t.
5 ............
6 t.h......h..

Turn = 16.
  012345678901
0 .........h..
1 ............
2 ...ff.......
3 ...........h
4 ..........t.
5 ............
6 t.h......h..

*** Darwin 12x7 ***
Turn = 0.
  0123456
0 .......
1 h.h....
2 .....t.
3 ....h.f
4 ...h...
5 ......t
6 .......
7 .......
8 .......
9 ......r
0 .......
1 ...r...

*** Darwin 13x19 ***
Turn = 0.
  0123456789012345678
0 ...................
1 ...................
2 ...................
3 ...................
4 ....t..........t...
5 .................h.
6 ................f..
7 .....f.............
8 ...................
9 ...................
0 .....h...f.........
1 ..........t.h......
2 ...................

Turn = 2.
  0123456789012345678
0 ...................
1 ...................
2 ...................
3 ...................
4 ....t..........t...
5 ...............h...
6 ................f..
7 .....f.............
8 ...................
9 ...................
0 ...h.....f.........
1 ..........t........
2 ............h......

Turn = 4.
  0123456789012345678
0 ...................
1 ...................
2 ...................
3 ...................
4 ....t..........t...
5 .............h.....
6 ................f..
7 .....f.............
8 ...................
9 ...................
0 .h.......f.........
1 ..........t........
2 ............h......

Turn = 6.
  0123456789012345678
0 ...................
1 ...................
2 ...................
3 ...................
4 ....t..........t...
5 ...........h.......
6 ................f..
7 .....f.............
8 ...................
9 ...................
0 h........f.........
1 ..........t........
2 ............h......

Turn = 8.
  0123456789012345678
0 ...................
1 ...................
2 ...................
3 ...................
4 ....t..........t...
5 .........h.........
6 ................f..
7 .....f.............
8 ...................
9 ...................
0 h........f.........
1 ..........t........
2 ............h......

Turn = 10.
  0123456789012345678
0 ...................
1 ...................
2 ...................
3 ...................
4 ....t..........t...
5 .......h...........
6 ................f..
7 .....f.............
8 ...................
9 ...................
0 h........f.........
1 ..........t........
2 ............h......

*** Darwin 18x5 ***
Turn = 0.
  01234
0 .....
1 .....
2 .....
3 .....
4 .....
5 ....t
6 .....
7 .....
8 .....
9 ..t..
0 .....
1 .....
2 .....
3 .....
4 .....
5 ..f..
6 .....
7 .....

*** Darwin 14x11 ***
Turn = 0.
  01234567890
0 ...........
1 ...........
2 ...........
3 f..........
4 f..........
5 ...........
6 f....h.....
7 ...........
8 ...........
9 ...........
0 ...........
1 ...t.......
2 ...........
3 .........t.

Turn = 2.
  01234567890
0 ...........
1 ...........
2 ...........
3 f..........
4 f..........
5 ...........
6 f..h.......
7 ...........
8 ...........
9 ...........
0 ...........
1 ...t.......
2 ...........
3 .........t.

Turn = 4.
  01234567890
0 ...........
1 ...........
2 ...........
3 f..........
4 f..........
5 ...........
6 fh.........
7 ...........
8 ...........
9 ...........
0 ...........
1 ...t.......
2 ...........
3 .........t.

Turn = 6.
  01234567890
0 ...........
1 ...........
2 ...........
3 f..........
4 f..........
5 ...........
6 fh.........
7 ...........
8 ...........
9 ...........
0 ...........
1 ...t.......
2 ...........
3 .........t.

Turn = 8.
  01234567890
0 ...........
1 ...........
2 ...........
3 f..........
4 f..........
5 ...........
6 fh.........
7 ...........
8 ...........
9 ...........
0 ...........
1 ...t.......
2 ...........
3 .........t.

Turn = 10.
  01234567890
0 ...........
1 ...........
2 ...........
3 f..........
4 f..........
5 ...........
6 fh.........
7 ...........
8 ...........
9 ...........
0 ...........
1 ...t.......
2 ...........
3 .........t.

Turn = 12.
  01234567890
0 ...........
1 ...........
2 ...........
3 f..........
4 f..........
5 ...........
6 fh.........
7 ...........
8 ...........
9 ...........
0 ...........
1 ...t.......
2 ...........
3 .........t.

Turn = 14.
  01234567890
0 ...........
1 ...........
2 ...........
3 f..........
4 f..........
5 ...........
6 fh.........
7 ...........
8 ...........
9 ...........
0 ...........
1 ...t.......
2 ...........
3 .........t.

Turn = 16.
  01234567890
0 ...........
1 ...........
2 ...........
3 f..........
4 f..........
5 ...........
6 fh.........
7 ...........
8 ...........
9 ...........
0 ...........
1 ...t.......
2 ...........
3 .........t.

Turn = 18.
  01234567890
0 ...........
1 ...........
2 ...........
3 f..........
4 f..........
5 ...........
6 fh.........
7 ...........
8 ...........
9 ...........
0 ...........
1 ...t.......
2 ...........
3 .........t.

Turn = 20.
  01234567890
0 ...........
1 ...........
2 ...........
3 f..........
4 f..........
5 ...........
6 fh.........
7 ...........
8 ...........
9 ...........
0 ...........
1 ...t.......
2 ...........
3 .........t.

Turn = 22.
  01234567890
0 ...........
1 ...........
2 ...........
3 f..........
4 f..........
5 ...........
6 fh.........
7 ...........
8 ...........
9 ...........
0 ...........
1 ...t.......
2 ...........
3 .........t.

*** Darwin 14x11 ***
Turn = 0.
  01234567890
0 .......hf..
1 ...........
2 .........f.
3 ...........
4 .....f.....
5 ...........
6 ...........
7 ...........
8 ...........
9 ...........
0 ...........
1 ...th..r...
2 ...........
3 ...........

Turn = 5.
  01234567890
0 .......hf..
1 ...........
2 .........f.
3 ...........
4 .....f.....
5 ...........
6 ....h......
7 ...........
8 ...........
9 ...........
0 ...........
1 ...r.......
2 ...r.......
3 ...........

Turn = 10.
  01234567890
0 .......hf..
1 ....h......
2 .........f.
3 ...........
4 .....f.....
5 ...........
6 ...........
7 ...........
8 ...........
9 ...........
0 ...........
1 ...........
2 r..........
3 r..........

Turn = 15.
  01234567890
0 ....h..hf..
1 ...........
2 .........f.
3 ...........
4 .....f.....
5 ...........
6 ...........
7 ...........
8 ...........
9 r..........
0 ...........
1 ...........
2 ...........
3 ...r.......

Turn = 20.
  01234567890
0 ....h..hf..
1 ...........
2 .........f.
3 ...........
4 r....f.....
5 ...........
6 ...........
7 ...........
8 ...........
9 ...........
0 ...........
1 ...........
2 ...........
3 ........r..

*** Darwin 8x18 ***
Turn = 0.
  012345678901234567
0 ..................
1 ........r.........
2 ..................
3 ................f.
4 ........t.........
5 r.....htr.........
6 h.................
7 ..............r...

Turn = 6.
  012345678901234567
0 r.................
1 ..............r...
2 ..............r...
3 ................f.
4 ........t.........
5 .......t......r...
6 ..................
7 h.....h...........

Turn = 12.
  012345678901234567
0 ......r...........
1 ..................
2 ........r.........
3 ................fr
4 ........t.........
5 .......t..........
6 ..................
7 h.....h..........r

*** Darwin 7x15 ***
Turn = 0.
  012345678901234
0 ..........h....
1 ...............
2 ...............
3 ...............
4 ...........f..h
5 ...............
6 ...........r...

Turn = 6.
  012345678901234
0 ..............h
1 ..............h
2 ...............
3 ...............
4 ...........f...
5 ...............
6 ......r........

*** Darwin 11x6 ***
Turn = 0.
  012345
0 ......
1 h...f.
2 ......
3 t.....
4 ......
5 ..r...
6 .....r
7 ......
8 ......
9 ......
0 ......

Turn = 11.
  012345
0 ......
1 ...hf.
2 r.....
3 ......
4 .r....
5 ......
6 ......
7 ......
8 ......
9 ......
0 .....r

Turn = 22.
  012345
0 ......
1 ...hf.
2 ......
3 ......
4 ......
5 ......
6 r.....
7 r.....
8 ......
9 ......
0 .....r

*** Darwin 15x9 ***
Turn = 0.
  012345678
0 ........h
1 .........
2 .........
3 .........
4 .........
5 .........
6 .........
7 .........
8 .........
9 .........
0 .........
1 .........
2 .........
3 .........
4 .........

Turn = 9.
  012345678
0 .........
1 .........
2 .........
3 .........
4 .........
5 .........
6 .........
7 .........
8 .........
9 ........h
0 .........
1 .........
2 .........
3 .........
4 .........

Turn = 18.
  012345678
0 .........
1 .........
2 .........
3 .........
4 .........
5 .........
6 .........
7 .........
8 .........
9 .........
0 .........
1 .........
2 .........
3 .........
4 ........h

*** Darwin 9x13 ***
Turn = 0.
  0123456789012
0 .............
1 h..t....h....
2 .............
3 .............
4 tt.........t.
5 .............
6 ....t........
7 ......t......
8 .............

*** Darwin 11x15 ***
Turn = 0.
  012345678901234
0 ....r.......r..
1 ...............
2 ............t..
3 ....t..........
4 ...............
5 ...............
6 ...............
7 ......h........
8 ...............
9 ............f.t
0 t..............

Turn = 3.
  012345678901234
0 ......r........
1 ............t..
2 ............t..
3 ....t..........
4 ...............
5 ...............
6 ...............
7 ...............
8 ...............
9 ............f.t
0 t.....h........

*** Darwin 13x9 ***
Turn = 0.
  012345678
0 .........
1 .........
2 .........
3 .........
4 .t.......
5 .........
6 .........
7 .........
8 .........
9 .........
0 .........
1 h........
2 .........

*** Darwin 17x12 ***
Turn = 0.
  012345678901
0 ............
1 ............
2 ............
3 ............
4 ......h.....
5 ............
6 ............
7 .......t....
8 ..r.........
9 ............
0 ............
1 ............
2 ............
3 ..h.........
4 ............
5 ............
6 ........t..r

*** Darwin 8x10 ***
Turn = 0.
  0123456789
0 ..........
1 ..........
2 .....r....
3 ..........
4 ..........
5 ..........
6 t.........
7 ..........

Turn = 9.
  0123456789
0 r.........
1 ..........
2 ..........
3 ..........
4 ..........
5 ..........
6 t.........
7 ..........

Turn = 18.
  0123456789
0 .......r..
1 ..........
2 ..........
3 ..........
4 ..........
5 ..........
6 t.........
7 ..........

*** Darwin 8x13 ***
Turn = 0.
  0123456789012
0 ...t.........
1 .......h.....
2 .............
3 .............
4 .............
5 ..h..........
6 .............
7 .............
