28

10 12
8
t 9 4 w
f 1 6 e
f 7 2 n
h 9 9 e
t 0 11 e
t 2 9 e
f 0 5 s
t 0 10 s
49 5

38 14
6
r 24 1 n
r 3 8 s
h 0 2 e
t 21 3 w
t 4 11 w
h 26 7 w
20 1

31 27
6
r 6 8 w
t 25 14 e
r 15 8 e
t 6 4 e
r 3 25 n
h 16 25 w
8 2

30 7
5
f 0 1 s
t 21 1 e
h 13 3 s
t 0 6 n
r 8 1 e
47 2

34 32
4
t 29 17 e
f 13 2 n
h 2 0 s
h 13 21 n
33 3

11 3
4
r 1 1 s
f 6 2 s
h 6 1 w
t 2 1 w
8 4

2 25
6
f 0 4 s
r 0 24 w
r 1 22 e
f 1 15 s
t 0 14 e
r 0 19 w
43 5

13 17
1
f 12 3 s
50 4

32 34
8
f 22 23 w
t 23 4 s
f 16 13 e
h 26 28 e
f 30 30 e
r 24 7 s
f 10 2 s
h 22 32 e
24 5

11 21
5
f 7 17 s
h 5 20 w
t 10 11 n
r 0 13 s
t 1 1 n
31 2

32 36
3
t 11 31 s
r 3 27 n
f 22 13 s
36 3

35 38
4
r 18 28 w
r 12 4 e
f 15 9 s
t 22 12 n
20 4

10 37
6
f 6 22 w
f 5 10 s
f 4 9 e
h 3 24 w
t 0 3 e
f 8 0 s
9 3

13 25
7
t 8 5 n
r 2 19 s
h 4 2 e
t 9 5 s
h 1 1 e
r 10 3 n
r 9 17 n
34 1

15 34
2
f 0 10 s
t 10 10 e
23 2

14 40
4
h 11 12 e
t 3 13 n
r 1 1 s
r 6 27 w
49 2

4 26
7
t 0 19 w
r 2 17 n
f 2 9 n
h 0 21 s
f 3 8 n
t 1 22 w
f 0 14 e
48 1

8 15
8
r 3 10 n
h 0 0 w
f 7 5 n
f 0 5 n
t 7 10 s
t 3 6 s
r 1 4 e
r 1 4 n
10 3

35 38
10
h 3 23 w
h 19 35 w
t 24 12 w
f 27 3 w
h 21 26 s
h 12 24 s
t 1 23 e
r 11 34 s
t 22 16 e
f 7 34 e
10 3

5 37
1
r 2 8 s
35 2

10 17
4
r 7 3 w
f 4 0 w
r 7 9 e
t 2 8 s
31 1

25 2
7
t 24 0 w
f 3 1 w
f 6 1 w
f 24 0 e
h 18 0 e
t 8 0 w
h 0 0 e
9 5

13 18
9
h 1 3 w
f 8 6 s
h 3 5 n
t 11 14 s
h 10 17 w
f 6 7 s
r 11 2 w
r 7 3 e
r 4 3 n
46 3

32 32
6
t 26 19 w
r 3 18 n
t 1 1 s
h 31 20 s
f 20 3 w
h 21 16 s
40 3

16 18
6
f 14 9 s
r 15 11 e
f 4 10 n
f 6 13 w
r 12 10 w
r 12 11 n
15 5

23 12
3
h 21 2 w
r 5 6 s
r 17 1 e
46 4

16 11
1
t 10 6 n
15 5

23 38
5
r 22 30 n
h 19 36 w
t 1 25 s
t 16 1 e
f 2 22 s
28 2
